{
    "Categories": "Qt;KDE;X-KDE-settings-translations;",
    "KPlugin": {
        "BugReportUrl": "https://bugs.kde.org/enter_bug.cgi?product=systemsettings&component=kcm_kwinvirtualdesktops",
        "Description": "Configure navigation, number and layout of virtual desktops",
        "Description[ar]": "اضبط عدد وتخطيط أسطح المكتب الافتراضية وكيفية التنقل بينها",
        "Description[az]": "Virtual iş masalarının istiqamətini, sayını və maketini tənzimləyin",
        "Description[bg]": "Конфигуриране на навигация, брой и подредба на виртуални работни плотове",
        "Description[ca@valencia]": "Configura la navegació, el nombre i la disposició dels escriptoris virtuals",
        "Description[ca]": "Configura la navegació, el nombre i la disposició dels escriptoris virtuals",
        "Description[de]": "Navigation, Anzahl und Layout virtueller Arbeitsflächen einrichten",
        "Description[en_GB]": "Configure navigation, number and layout of virtual desktops",
        "Description[es]": "Configurar la navegación, el número y la disposición de los escritorios virtuales",
        "Description[et]": "Virtuaalsete töölaudade vahel liikumise, nende arvu ja paigutuse seadistamine",
        "Description[eu]": "Konfiguratu nabigatzea, alegiazko mahaigainen kopurua eta antolamendua",
        "Description[fi]": "Virtuaalityöpöytien määrä-, asettelu- ja liikkumisasetukset",
        "Description[fr]": "Configurer la navigation, le nombre et la disposition des bureaux virtuels",
        "Description[ia]": "Configura navigation, numero e disposition de scriptorios virtual",
        "Description[id]": "Konfigurasikan navigasi, nomor dan tataletak desktop virtual",
        "Description[it]": "Configura navigazione, numero e disposizione dei desktop virtuali",
        "Description[ja]": "仮想デスクトップの数、レイアウト、仮想デスクトップ間の移動を設定",
        "Description[ko]": "가상 바탕 화면 탐색, 개수, 레이아웃 설정",
        "Description[nl]": "Navigatie, aantal en indeling van virtuele bureaubladen configureren",
        "Description[nn]": "Set opp navigering, nummer og vising av virtuelle skrivebord",
        "Description[pl]": "Ustawienia poruszania się, liczby oraz układu wirtualnych klawiatur",
        "Description[pt]": "Configurar a navegação, o número e a disposição dos ecrãs virtuais",
        "Description[pt_BR]": "Configura a navegação, quantidade e layout das áreas de trabalho virtuais",
        "Description[ru]": "Число, расположение и способ переключения рабочих столов",
        "Description[sk]": "Nastaviť navigáciu, počet a rozloženie virtuálnych plôch",
        "Description[sl]": "Prilagodite krmarjenje, število in postavitev navideznih namizij",
        "Description[sv]": "Anpassa navigering, antal och layout av virtuella skrivbord",
        "Description[ta]": "பணிமேடைகளின் எண்ணிக்கை, தளவமைப்பு, மற்றும் அவற்றுக்கிடையேயான உலாவலை அமைக்கும்",
        "Description[tr]": "Dolaşımı, sanal masaüstlerinin sayısını ve yerleşimini yapılandır",
        "Description[uk]": "Налаштовування навігації, кількості та компонування віртуальних стільниць",
        "Description[vi]": "Cấu hình điều hướng, số lượng và bố cục của các bàn làm việc ảo",
        "Description[x-test]": "xxConfigure navigation, number and layout of virtual desktopsxx",
        "Description[zh_CN]": "配置虚拟桌面的数量、排列方式和切换方式",
        "Description[zh_TW]": "設定虛擬桌面的導覽、數量與佈局",
        "FormFactors": [
            "desktop"
        ],
        "Icon": "preferences-desktop-virtual",
        "Name": "Virtual Desktops",
        "Name[ar]": "أسطح المكتب الافتراضية",
        "Name[az]": "Virtual iş masaları",
        "Name[bg]": "Виртуални работни плотове",
        "Name[ca@valencia]": "Escriptoris virtuals",
        "Name[ca]": "Escriptoris virtuals",
        "Name[cs]": "Virtuální plochy",
        "Name[de]": "Virtuelle Arbeitsflächen",
        "Name[en_GB]": "Virtual Desktops",
        "Name[es]": "Escritorios virtuales",
        "Name[et]": "Virtuaalsed töölauad",
        "Name[eu]": "Alegiazko mahaigaina",
        "Name[fi]": "Virtuaalityöpöydät",
        "Name[fr]": "Bureaux virtuels",
        "Name[ia]": "Scriptorios virtual",
        "Name[id]": "Desktop Virtual",
        "Name[it]": "Desktop virtuali",
        "Name[ja]": "仮想デスクトップ",
        "Name[ka]": "ვირტუალური სამუშაო მაგიდები",
        "Name[ko]": "가상 바탕 화면",
        "Name[nl]": "Virtuele bureaubladen",
        "Name[nn]": "Virtuelle skrivebord",
        "Name[pl]": "Pulpity wirtualne",
        "Name[pt]": "Ecrãs Virtuais",
        "Name[pt_BR]": "Áreas de trabalho virtuais",
        "Name[ru]": "Виртуальные рабочие столы",
        "Name[sk]": "Virtuálne pracovné plochy",
        "Name[sl]": "Navidezna namizja",
        "Name[sv]": "Virtuella skrivbord",
        "Name[ta]": "மெய்நிகர் பணிமேடைகள்",
        "Name[tr]": "Sanal Masaüstleri",
        "Name[uk]": "Віртуальні стільниці",
        "Name[vi]": "Bàn làm việc ảo",
        "Name[x-test]": "xxVirtual Desktopsxx",
        "Name[zh_CN]": "虚拟桌面",
        "Name[zh_TW]": "虛擬桌面"
    },
    "X-DocPath": "kcontrol/desktop/index.html",
    "X-KDE-Keywords": "desktop,desktops,number,virtual desktop,multiple desktops,pager,pager widget,pager applet,pager settings,indicator,navigation,cube,slide,workspaces",
    "X-KDE-Keywords[ar]": "سطح,أسطح,مكتب,عدد,افتراضي,تنقل,مكعب,مساحة العمل,مؤشر",
    "X-KDE-Keywords[az]": "desktop,desktops,number,virtual desktop,multiple desktops,pager,pager widget,pager applet,pager settings,indicator,navigation,cube,slide,workspaces,iş masası,iş masaları,say,virtual iş masaları,səhifələyici,səhifələyici vidjet, səhifələyici əlavə,səhifələmə ayarları,göstərici,istiqamət,kub,sürüşmə,iş sahələri",
    "X-KDE-Keywords[ca@valencia]": "escriptori,escriptoris,nombre,escriptori virtual,múltiples escriptoris,paginador,giny paginador,miniaplicació de paginació,configuració del paginador,indicador,navegació,cub,diapositiva,espais de treball",
    "X-KDE-Keywords[ca]": "escriptori,escriptoris,nombre,escriptori virtual,múltiples escriptoris,paginador,giny paginador,miniaplicació de paginació,arranjament del paginador,indicador,navegació,cub,diapositiva,espais de treball",
    "X-KDE-Keywords[de]": "Arbeitsfläche,Arbeitsflächen,Desktop,Anzahl,Virtuelle Arbeitsfläche,Mehrere Arbeitsflächen,Arbeitsflächenumschalter,Arbeitsflächenumschalter-Bedienelement,Arbeitsflächenumschalter-Miniprogramm,Arbeitsflächenumschalter-Einstellungen",
    "X-KDE-Keywords[en_GB]": "desktop,desktops,number,virtual desktop,multiple desktops,pager,pager widget,pager applet,pager settings,indicator,navigation,cube,slide,workspaces",
    "X-KDE-Keywords[es]": "escritorio,escritorios,número,escritorio virtual,múltiples escritorios,paginador,control de paginación,miniaplicación del paginador,preferencias del paginador,indicador,navegación,cubo,deslizar,espacios de trabajo",
    "X-KDE-Keywords[fi]": "työpöytä,työpöydät,määrä,virtuaalityöpöytä,monta työpöytää,sivutus,sivutin,sivutinsovelma,sivuttimen asetukset,sivutusasetukset,osoitin,navigointi,kuutio,liuku,työtilat",
    "X-KDE-Keywords[fr]": "bureau, bureaux, numéro, bureau virtuel, bureaux multiples, pager, composant graphique de pager, applet de pager, configuration du pager, indicateur, navigation, cube, côté, espaces de travail",
    "X-KDE-Keywords[hu]": "asztal,asztalok,szám,virtuális asztal,több asztal,papír,papír felületi elem,papír kisalkalmazás,lapozóbeállítások,indikátor,navigáció,kocka,csúsztatás,munkaterek",
    "X-KDE-Keywords[ia]": "scriptorio,scriptorios,numero,scriptorio virtual,scriptorio multiple,pager, widget de pager, applet de pager, preferentias de pager, indicator, navigation, cubo, glissamento, spatios de labor",
    "X-KDE-Keywords[id]": "desktop,desktop,jumlah,desktop virtual,beberapa desktop,halaman,widget halaman,applet halaman,pengaturan halaman,indikator,navigasi,kubus,geser,ruang kerja",
    "X-KDE-Keywords[it]": "desktop,numero,desktop virtuali,desktop multipli,cambiadesktop,oggetto cambiadesktop,applet cambiadesktop,impostazioni del cambiadesktop,indicatore,navigazione,cubo,diapositiva,aree di lavoro",
    "X-KDE-Keywords[ko]": "desktop,desktops,number,virtual desktop,multiple desktops,pager,pager widget,pager applet,pager settings,indicator,navigation,cube,slide,workspaces,데스크톱,바탕 화면,가상 바탕 화면,가상 데스크톱,호출기,호출기 위젯,호출기 애플릿,호출기 설정,탐색,큐브,슬라이드,작업 공간",
    "X-KDE-Keywords[nl]": "bureaublad,bureaubladen,aantal,virtueel bureaublad,meervoudige bureaubladen,pager,pager-widget,pager-applet,pagerinstellingen,indicator,navigatie,kubus,dia,werkruimten",
    "X-KDE-Keywords[nn]": "skrivebord,mengd,tal,virtuelt skrivebord,fleire skrivebord,vekslar,vekslarelement,vekslarelement,vekslerinnstillinger,vekslaroppsett,indikator,navigering,navigasjon,kube,gliding,arbeidsområde",
    "X-KDE-Keywords[pl]": "pulpit,pulpity,liczba,pulpity wirtualne,wiele pulpitów,pager,element interfejsu pagera,aplet pagera,ustawienia pagera,wskaźnik,poruszanie się,sześcian,slajd,przestrzenie pracy",
    "X-KDE-Keywords[pt]": "ecrã,ecrãs,número,ecrã virtual,múltiplos ecrãs,paginador,elemento paginador,'applet' do paginador,configuração do paginador,indicador,navegação,cubo,deslizamento,áreas de trabalho",
    "X-KDE-Keywords[pt_BR]": "área de trabalho,áreas de trabalho,desktop,desktops,número,área de trabalho virtual,múltiplas áreas de trabalho,paginador,elemento paginador,miniaplicativo do paginador,configurações do paginador,indicador,navegação,cubo, apresentação,ambientes de trabalho",
    "X-KDE-Keywords[ro]": "birou,birouri,număr,birou virtual,birouri multiple,paginator,control paginator,miniaplicație paginator,configurare paginator,paginare,indicator,navigare,cub,glisare,glisează,spațiu de lucru",
    "X-KDE-Keywords[ru]": "desktop,desktops,number,virtual desktop,multiple desktops,pager,pager widget,pager applet,pager settings,indicator,navigation,cube,slide,workspaces,рабочий стол,рабочие столы,число,виртуальный рабочий стол,несколько рабочих столов,переключатель,переключение,виджет переключения,аплет переключения,параметры переключения,настройки переключения,индикатор,куб,скольжение",
    "X-KDE-Keywords[sk]": "pracovná plocha,pracovné plochy,číslo,virtuálna pracovná plocha,viaceré plochy,prepínač,miniaplikácia prepínača, aplet prepínač,nastavenia prepínača,indikátor,navigácia,kocka,snímka,pracovné priestory",
    "X-KDE-Keywords[sl]": "namizje,namizja,število,navidezna namizja,več namizij,pozivnik,orodje pozivnika, aplikacija pozivnika,nastavitve pozivnika,indikator,krmarjenje,kocka,slika,delovni prostori",
    "X-KDE-Keywords[sv]": "skrivbord,antal,virtuellt skrivbord,flera skrivbord,skrivbordsvisning,visningskomponent,visningsminiprogram,visningsinställningar,indikator,navigering,kub,skjut,arbetsrymder",
    "X-KDE-Keywords[ta]": "desktop,desktops,number,virtual desktop,multiple desktops,pager,pager widget,pager applet,pager settings,indicator,navigation,cube,slide,workspaces, பணிமேடை, மெய்நிகர் பணிமேடை, எண்ணிக்கை, பணிமேடைகள், மாற்றி, காட்டி, உலாவல், பிளாஸ்மாய்ட், பிளாஸ்மாய்டு, பிலாஸ்மாய்ட், பிலாஸ்மாய்டு",
    "X-KDE-Keywords[tr]": "masaüstü,masaüstleri,sayı,sanal masaüstü,çoklu masaüstü,sayfalayıcı,sayfalayıcı gereci,sayfalayıcı gereci,sayfalayıcı ayarları,belirteç,dolaşım,küp,slayt,çalışma alanları",
    "X-KDE-Keywords[uk]": "desktop,desktops,number,virtual desktop,multiple desktops,pager,pager widget,pager applet,pager settings,indicator,navigation,cube,slide,workspaces,стільниця,стільниці,кількість,віртуальна стільниця,перемикач,пейджер,віджет перемикача,віджет пейджера,аплет перемикання,аплет перемикача,параметри перемикання,параметри перемикача,індикатор,навігація,куб,ковзання,робочі простори",
    "X-KDE-Keywords[vi]": "desktop,desktops,number,virtual desktop,multiple desktops,pager,pager widget,pager applet,pager settings,indicator,navigation,cube,slide,workspaces,bàn làm việc,số lượng,bàn làm việc ảo,nhiều bàn làm việc,tổng quan,phụ kiện tổng quan,tiểu ứng dụng tổng quan,thiết lập trình tổng quan,trình chỉ thị,điều hướng,khối hộp,trượt,không gian làm việc",
    "X-KDE-Keywords[x-test]": "xxdesktopxx,xxdesktopsxx,xxnumberxx,xxvirtual desktopxx,xxmultiple desktopsxx,xxpagerxx,xxpager widgetxx,xxpager appletxx,xxpager settingsxx,xxindicatorxx,xxnavigationxx,xxcubexx,xxslidexx,xxworkspacesxx",
    "X-KDE-Keywords[zh_CN]": "desktop,desktops,number,virtual desktop,multiple desktops,pager,pager widget,pager applet,pager settings,桌面,虚拟桌面,多桌面,切换,虚拟桌面切换器,切换器,切换器组件,切换器设置,指示器,指示色,提示器,提示色,导航,方块,正方体,滑动,工作区,工作空间",
    "X-KDE-ParentApp": "kcontrol",
    "X-KDE-System-Settings-Parent-Category": "desktopbehavior",
    "X-KDE-Weight": 60
}
